…
``` r
## subset to view just the data from the retention session
retention <- behavior %>% filter(TrainSessionCombo == "Retention") %>%  droplevels() 
```

``` r
behaviorsummaryTime <- summarise(group_by(behavior, APA, TrainSessionComboNum), m = mean(Time1stEntr), se = sd(Time1stEntr)/sqrt(length(Time1stEntr)))
behaviorsummaryTime
```

    ## Source: local data frame [27 x 4]
    ## Groups: APA [?]
    ## 
    ##           APA TrainSessionComboNum        m       se
    ##        <fctr>                <int>    <dbl>    <dbl>
    ## 1     control                    1 11.66765 2.172617
    ## 2     control                    2 12.99706 4.081765
    ## 3     control                    3 41.59588 7.201730
    ## 4     control                    4 28.79882 5.581521
    ## 5     control                    5 24.91706 6.749053
    ## 6     control                    6 30.78412 4.045806
    ## 7     control                    7 15.08588 2.535963
    ## 8     control                    8 34.96000 8.202296
    ## 9     control                    9 41.13412 9.478989
    ## 10 consistent                    1  6.14125 2.268263
    ## # ... with 17 more rows

``` r
behaviorsummaryNum <- summarise(group_by(behavior, APA, TrainSessionComboNum), m = mean(NumEntrances), se = sd(NumEntrances)/sqrt(length(NumEntrances)))
behaviorsummaryNum
```

    ## Source: local data frame [27 x 4]
    ## Groups: APA [?]
    ## 
    ##           APA TrainSessionComboNum        m        se
    ##        <fctr>                <int>    <dbl>     <dbl>
    ## 1     control                    1 31.88235 1.2153502
    ## 2     control                    2 21.05882 1.1129934
    ## 3     control                    3 14.41176 1.2006702
    ## 4     control                    4 15.11765 1.2715274
    ## 5     control                    5 16.47059 0.9930555
    ## 6     control                    6 14.94118 1.0017286
    ## 7     control                    7 14.17647 0.8838223
    ## 8     control                    8 15.76471 1.3787500
    ## 9     control                    9 15.41176 1.0916084
    ## 10 consistent                    1 31.12500 2.1333868
    ## # ... with 17 more rows
…
