…
    dfshocks <- behavior %>%
      dplyr::group_by(treatment, trial, trialNum) %>%
      dplyr::summarise(m = mean(NumShock), 
                       se = sd(NumShock)/sqrt(length(NumShock))) %>%
      dplyr::mutate(m = round(m,0)) %>%
      dplyr::mutate(measure = "NumShock") 
    dfshocks

    ## # A tibble: 36 x 6
    ## # Groups:   treatment, trial [36]
    ##    treatment        trial     trialNum     m    se measure 
    ##    <fct>            <fct>        <int> <dbl> <dbl> <chr>   
    ##  1 standard.yoked   Pre              1     0 0     NumShock
    ##  2 standard.yoked   Retention        9     0 0     NumShock
    ##  3 standard.yoked   Retest           5     4 1.20  NumShock
    ##  4 standard.yoked   T1               2     7 0.854 NumShock
    ##  5 standard.yoked   T2               3     5 2.12  NumShock
    ##  6 standard.yoked   T3               4     4 1.37  NumShock
    ##  7 standard.yoked   T4_C1            6     4 1.66  NumShock
    ##  8 standard.yoked   T5_C2            7     4 1.33  NumShock
    ##  9 standard.yoked   T6_C3            8     4 2.04  NumShock
    ## 10 standard.trained Pre              1     0 0     NumShock
    ## # … with 26 more rows
…
