…
    DGcor <- DEGsPCAbeahv %>% correlate() %>% rearrange() %>%  shave()

    ## 
    ## Correlation method: 'pearson'
    ## Missing treated using: 'pairwise.complete.obs'

    ## Registered S3 method overwritten by 'seriation':
    ##   method         from 
    ##   reorder.hclust gclus

    DGcor

    ## # A tibble: 218 x 219
    ##    rowname  SNX18  PCDH8  NPAS4  KCNJ2 ERRFI1   SGK1  NFIL3 TIPARP   PLK2
    ##    <chr>    <dbl>  <dbl>  <dbl>  <dbl>  <dbl>  <dbl>  <dbl>  <dbl>  <dbl>
    ##  1 SNX18   NA     NA     NA     NA     NA     NA     NA     NA     NA    
    ##  2 PCDH8    0.946 NA     NA     NA     NA     NA     NA     NA     NA    
    ##  3 NPAS4    0.943  0.920 NA     NA     NA     NA     NA     NA     NA    
    ##  4 KCNJ2    0.944  0.927  0.952 NA     NA     NA     NA     NA     NA    
    ##  5 ERRFI1   0.955  0.906  0.974  0.964 NA     NA     NA     NA     NA    
    ##  6 SGK1     0.961  0.920  0.953  0.925  0.940 NA     NA     NA     NA    
    ##  7 NFIL3    0.932  0.902  0.983  0.962  0.961  0.919 NA     NA     NA    
    ##  8 TIPARP   0.935  0.898  0.967  0.924  0.956  0.936  0.959 NA     NA    
    ##  9 PLK2     0.954  0.902  0.973  0.932  0.970  0.977  0.943  0.951 NA    
    ## 10 GADD45G  0.936  0.932  0.920  0.955  0.947  0.870  0.933  0.904  0.885
    ## # … with 208 more rows, and 209 more variables: GADD45G <dbl>,
    ## #   SLC16A1 <dbl>, FAM107B <dbl>, FBXO33 <dbl>, KCNF1 <dbl>, KITL <dbl>,
    ## #   GPR19 <dbl>, MEST <dbl>, PTGS2 <dbl>, JUN <dbl>, APAF1 <dbl>,
    ## #   FZD5 <dbl>, CWC25 <dbl>, PAK6 <dbl>, SMAD7 <dbl>, ZDBF2 <dbl>,
    ## #   CXADR <dbl>, TSC22D2 <dbl>, EGR4 <dbl>, A830010M20RIK <dbl>,
    ## #   ARID5B <dbl>, PLK3 <dbl>, PIGA <dbl>, KCNA4 <dbl>, IRF2BP2 <dbl>,
    ## #   HMGCR <dbl>, RFX2 <dbl>, SIAH2 <dbl>, BTG2 <dbl>, AHR <dbl>,
    ## #   ARL13B <dbl>, ARL4A <dbl>, FZD4 <dbl>, MARCH11 <dbl>, C2CD4B <dbl>,
    ## #   FOSB <dbl>, ING2 <dbl>, RASD1 <dbl>, JUNB <dbl>, LONRF1 <dbl>,
…
    DGcorSlim <- correlate(DEGsPCAbeahv) %>%  
      focus(PC1)   %>%  
      arrange(PC1)

    ## 
    ## Correlation method: 'pearson'
    ## Missing treated using: 'pairwise.complete.obs'

    DGcorSlim

    ## # A tibble: 217 x 2
    ##    rowname           PC1
    ##    <chr>           <dbl>
    ##  1 Entr.Dist.1.m. -0.913
    ##  2 COQ2           -0.608
    ##  3 PC2            -0.589
    ##  4 ZFP207         -0.568
    ##  5 TUBB4A         -0.559
    ##  6 NXF1           -0.547
    ##  7 GPI1           -0.545
    ##  8 PXN            -0.468
    ##  9 LRRC45         -0.443
    ## 10 EEF1E1         -0.439
    ## # … with 207 more rows
…
