…
    vsd <- left_join(colData, vsd)

    ## Joining, by = "ID"

    forcorall <-  vsd %>% select(PC1:Zzef1)
    y <- correlate(forcorall) 

    ## 
    ## Correlation method: 'pearson'
    ## Missing treated using: 'pairwise.complete.obs'

    y %>% filter(PC1 > 0.6) %>% arrange(desc(PC1)) 

    ## # A tibble: 189 x 17,013
    ##    rowname   PC1    PC2 `0610007P14Rik` `0610009B22Rik` `0610009L18Rik`
    ##    <chr>   <dbl>  <dbl>           <dbl>           <dbl>           <dbl>
    ##  1 Naf1    0.859 -0.693         -0.0322           0.322         -0.196 
    ##  2 Ptgs2   0.839 -0.640         -0.205            0.318         -0.0816
    ##  3 Rgs2    0.833 -0.605          0.0121           0.206         -0.0871
    ##  4 Hist1h… 0.818 -0.539         -0.0489           0.390         -0.456 
    ##  5 Col10a1 0.813 -0.574         -0.0332           0.381         -0.148 
    ##  6 Arc     0.806 -0.631         -0.179            0.223         -0.123 
    ##  7 Hspb3   0.801 -0.277         -0.207            0.174          0.0138
    ##  8 Npas4   0.798 -0.637         -0.345            0.476          0.0298
    ##  9 Fzd5    0.797 -0.666         -0.122            0.407          0.0550
    ## 10 Acan    0.789 -0.542         -0.0800           0.331         -0.249 
    ## # … with 179 more rows, and 17,007 more variables: `0610009O20Rik` <dbl>,
    ## #   `0610010F05Rik` <dbl>, `0610010K14Rik` <dbl>, `0610012G03Rik` <dbl>,
    ## #   `0610030E20Rik` <dbl>, `0610037L13Rik` <dbl>, `0610040J01Rik` <dbl>,
    ## #   `1110002E22Rik` <dbl>, `1110004E09Rik` <dbl>, `1110004F10Rik` <dbl>,
    ## #   `1110008F13Rik` <dbl>, `1110008L16Rik` <dbl>, `1110008P14Rik` <dbl>,
    ## #   `1110012L19Rik` <dbl>, `1110017D15Rik` <dbl>, `1110032A03Rik` <dbl>,
    ## #   `1110032F04Rik` <dbl>, `1110034G24Rik` <dbl>, `1110037F02Rik` <dbl>,
    ## #   `1110038F14Rik` <dbl>, `1110051M20Rik` <dbl>, `1110059E24Rik` <dbl>,
    ## #   `1110059G10Rik` <dbl>, `1110065P20Rik` <dbl>, `1190002N15Rik` <dbl>,
…
    y %>% filter(PC2 > 0.5) %>% arrange(desc(PC2)) 

    ## # A tibble: 234 x 17,013
    ##    rowname    PC1   PC2 `0610007P14Rik` `0610009B22Rik` `0610009L18Rik`
    ##    <chr>    <dbl> <dbl>           <dbl>           <dbl>           <dbl>
    ##  1 Cabp7   -0.244 0.743          0.0638        -0.484           -0.0667
    ##  2 Traf3i… -0.343 0.730         -0.145          0.0526           0.342 
    ##  3 Cox7a2  -0.499 0.720          0.170         -0.417           -0.0199
    ##  4 Ndufv2  -0.397 0.697          0.0729        -0.193           -0.108 
    ##  5 Trim65  -0.422 0.693         -0.0897        -0.353            0.134 
    ##  6 Echdc3  -0.244 0.692         -0.131          0.0287           0.269 
    ##  7 Frmd7   -0.310 0.679         -0.164          0.00453          0.266 
    ##  8 Akr1b3  -0.422 0.657         -0.113         -0.103           -0.195 
    ##  9 B23021… -0.392 0.656          0.245         -0.621           -0.280 
    ## 10 Nlgn1   -0.280 0.653          0.177         -0.503           -0.275 
    ## # … with 224 more rows, and 17,007 more variables: `0610009O20Rik` <dbl>,
    ## #   `0610010F05Rik` <dbl>, `0610010K14Rik` <dbl>, `0610012G03Rik` <dbl>,
    ## #   `0610030E20Rik` <dbl>, `0610037L13Rik` <dbl>, `0610040J01Rik` <dbl>,
    ## #   `1110002E22Rik` <dbl>, `1110004E09Rik` <dbl>, `1110004F10Rik` <dbl>,
    ## #   `1110008F13Rik` <dbl>, `1110008L16Rik` <dbl>, `1110008P14Rik` <dbl>,
    ## #   `1110012L19Rik` <dbl>, `1110017D15Rik` <dbl>, `1110032A03Rik` <dbl>,
    ## #   `1110032F04Rik` <dbl>, `1110034G24Rik` <dbl>, `1110037F02Rik` <dbl>,
    ## #   `1110038F14Rik` <dbl>, `1110051M20Rik` <dbl>, `1110059E24Rik` <dbl>,
    ## #   `1110059G10Rik` <dbl>, `1110065P20Rik` <dbl>, `1190002N15Rik` <dbl>,
…
    y %>% filter(PC2 < -0.5) %>% arrange(desc(PC2)) 

    ## # A tibble: 534 x 17,013
    ##    rowname    PC1    PC2 `0610007P14Rik` `0610009B22Rik` `0610009L18Rik`
    ##    <chr>    <dbl>  <dbl>           <dbl>           <dbl>           <dbl>
    ##  1 Mybl2   -0.167 -0.500         0.00299          0.132           0.210 
    ##  2 Gm10750  0.218 -0.501        -0.259            0.226           0.148 
    ##  3 Cluap1   0.255 -0.501        -0.514            0.634           0.288 
    ##  4 Snrpd3   0.253 -0.501        -0.353            0.394           0.641 
    ##  5 Tnks     0.436 -0.501        -0.566            0.715           0.104 
    ##  6 Itpkc    0.216 -0.501        -0.132            0.332           0.537 
    ##  7 Ngly1    0.302 -0.501         0.0815           0.0849          0.0530
    ##  8 Mapk6    0.111 -0.501        -0.368            0.435          -0.405 
    ##  9 Gabra2   0.212 -0.502        -0.424            0.484           0.413 
    ## 10 Tpt1     0.377 -0.502        -0.0116           0.208           0.319 
    ## # … with 524 more rows, and 17,007 more variables: `0610009O20Rik` <dbl>,
    ## #   `0610010F05Rik` <dbl>, `0610010K14Rik` <dbl>, `0610012G03Rik` <dbl>,
    ## #   `0610030E20Rik` <dbl>, `0610037L13Rik` <dbl>, `0610040J01Rik` <dbl>,
    ## #   `1110002E22Rik` <dbl>, `1110004E09Rik` <dbl>, `1110004F10Rik` <dbl>,
    ## #   `1110008F13Rik` <dbl>, `1110008L16Rik` <dbl>, `1110008P14Rik` <dbl>,
    ## #   `1110012L19Rik` <dbl>, `1110017D15Rik` <dbl>, `1110032A03Rik` <dbl>,
    ## #   `1110032F04Rik` <dbl>, `1110034G24Rik` <dbl>, `1110037F02Rik` <dbl>,
    ## #   `1110038F14Rik` <dbl>, `1110051M20Rik` <dbl>, `1110059E24Rik` <dbl>,
    ## #   `1110059G10Rik` <dbl>, `1110065P20Rik` <dbl>, `1190002N15Rik` <dbl>,
…
