…
    GO_synapse <- read.table("../data/goterms/GO_term_summary_20191121_145034.txt", sep = "\t", row.names = NULL)
    GO_synapse$GO <- "3. Synapse Organization (GO:0050808)"

    GO_learningormemory <- read.table("../data/goterms/GO_term_summary_20191121_142500.txt", sep = "\t", row.names = NULL)
    GO_learningormemory$GO <- "4. Learning or Memory (GO:0007611)"

    GOterms <- rbind(GO_learningormemory, GO_response, GO_translation, GO_synapse)
    GOterms <- GOterms %>%
      dplyr::mutate(gene = toupper(MGI.Gene.Marker.ID)) %>% 
      dplyr::select(gene, GO) %>% 
      dplyr::distinct(gene, GO) %>% 
     group_by(gene) 
    GOterms

    ## # A tibble: 7,156 x 2
    ## # Groups:   gene [6,717]
    ##    gene  GO                                
    ##    <chr> <chr>                             
    ##  1 AAAS  4. Learning or Memory (GO:0007611)
    ##  2 AAL   4. Learning or Memory (GO:0007611)
    ##  3 ABCA7 4. Learning or Memory (GO:0007611)
    ##  4 ABCC8 4. Learning or Memory (GO:0007611)
    ##  5 ABI2  4. Learning or Memory (GO:0007611)
    ##  6 ABL2  4. Learning or Memory (GO:0007611)
    ##  7 ADAM2 4. Learning or Memory (GO:0007611)
    ##  8 ADCY1 4. Learning or Memory (GO:0007611)
    ##  9 ADCY3 4. Learning or Memory (GO:0007611)
    ## 10 ADCY8 4. Learning or Memory (GO:0007611)
    ## # … with 7,146 more rows
…
    ## Joining, by = "gene"

sanes
-----

    sanesLichtman <- read_csv("../data/02e_sanesLichtman.csv")  %>% rename(gene = genes)

    ## Parsed with column specification:
    ## cols(
    ##   genes = col_character()
    ## )

    sanesLichtman

    ## # A tibble: 237 x 1
    ##    gene   
    ##    <chr>  
    ##  1 ACHE   
    ##  2 ADCY1  
    ##  3 ADRA2A 
    ##  4 ADRA2B 
    ##  5 ADRA2C 
    ##  6 ADRB1  
    ##  7 ADRB2  
    ##  8 ADRB3  
    ##  9 BDNF   
    ## 10 CACNA1A
    ## # … with 227 more rows
…
