…
    # Plot the dendrogram and the module colors underneath
    plotDendroAndColors(net$dendrograms[[1]], mergedColors[net$blockGenes[[1]]],
                        "Module colors",
                        dendroLabels = FALSE)

    # save data frame with genes and their module colors
    genes_modules <- as.data.frame(net$colors)

    genes_modules %>% 
      group_by(`net$colors`) %>%
      summarise(no_genes = length(`net$colors`))  %>%
      arrange(desc(no_genes))

    ## # A tibble: 53 x 2
    ##    `net$colors` no_genes
    ##    <fct>           <int>
    ##  1 turquoise        2930
    ##  2 blue             2763
    ##  3 brown            2089
    ##  4 yellow           1867
    ##  5 green             980
    ##  6 red               769
    ##  7 black             749
    ##  8 pink              414
    ##  9 magenta           342
    ## 10 purple            332
    ## # … with 43 more rows
…
