…
    pdf(file="../figures/fig-4.pdf", width=6.69, height=3.5)
    plot(fig4)
    dev.off()

    ## quartz_off_screen 
    ##                 2

data in one supplement
----------------------

    corrsPC1sig

    ## # A tibble: 58 x 2
    ##    gene      PC1
    ##    <chr>   <dbl>
    ##  1 Abra    0.764
    ##  2 Acan    0.784
    ##  3 Adamts1 0.730
    ##  4 Aim1l   0.709
    ##  5 Amigo2  0.715
    ##  6 Arc     0.806
    ##  7 Areg    0.784
    ##  8 Arl4d   0.738
    ##  9 Arl5b   0.724
    ## 10 Armcx5  0.776
    ## # … with 48 more rows

    PC1corrsDEGS

    ## # A tibble: 42 x 2
    ##    gene      PC1
    ##    <chr>   <dbl>
    ##  1 Acan    0.784
    ##  2 Adamts1 0.730
    ##  3 Amigo2  0.715
    ##  4 Arc     0.806
    ##  5 Arl4d   0.738
    ##  6 Arl5b   0.724
    ##  7 Armcx5  0.776
    ##  8 Atf3    0.774
    ##  9 Bdnf    0.707
    ## 10 Btg2    0.706
    ## # … with 32 more rows
…
    suppltable6 <-  corrrmat %>%  focus(PC1, topcorrrs,  mirror = TRUE) %>% arrange(desc(PC1))
    suppltable6

    ## # A tibble: 21 x 22
    ##    rowname   PC1  Naf1 Ptgs2  Rgs2 Hist1h1d Col10a1   Arc Hspb3 Npas4  Fzd5
    ##    <chr>   <dbl> <dbl> <dbl> <dbl>    <dbl>   <dbl> <dbl> <dbl> <dbl> <dbl>
    ##  1 PC1     1     0.862 0.840 0.834    0.815   0.813 0.806 0.803 0.802 0.799
    ##  2 Naf1    0.862 1     0.854 0.810    0.822   0.803 0.747 0.682 0.814 0.823
    ##  3 Ptgs2   0.840 0.854 1     0.943    0.748   0.886 0.933 0.716 0.964 0.903
    ##  4 Rgs2    0.834 0.810 0.943 1        0.709   0.945 0.899 0.694 0.877 0.881
    ##  5 Hist1h… 0.815 0.822 0.748 0.709    1       0.748 0.609 0.602 0.712 0.687
    ##  6 Col10a1 0.813 0.803 0.886 0.945    0.748   1     0.842 0.659 0.860 0.883
    ##  7 Arc     0.806 0.747 0.933 0.899    0.609   0.842 1     0.663 0.904 0.858
    ##  8 Hspb3   0.803 0.682 0.716 0.694    0.602   0.659 0.663 1     0.709 0.705
    ##  9 Npas4   0.802 0.814 0.964 0.877    0.712   0.860 0.904 0.709 1     0.912
    ## 10 Fzd5    0.799 0.823 0.903 0.881    0.687   0.883 0.858 0.705 0.912 1    
    ## # … with 11 more rows, and 11 more variables: Acan <dbl>, Areg <dbl>,
    ## #   Hist1h3i <dbl>, Armcx5 <dbl>, Atf3 <dbl>, Syt4 <dbl>, Nexn <dbl>,
    ## #   Hoxc4 <dbl>, Abra <dbl>, Fosl2 <dbl>, Ubc <dbl>
…
