…
    GO_synapse <- read.table("../data/goterms/03_synapseorganization.txt", sep = "\t", row.names = NULL)
    GO_synapse$GO <- "3. Synapse Organization (GO:0050808)"

    GO_learningormemory <- read.table("../data/goterms/04_learningormemory.txt", sep = "\t", row.names = NULL)
    GO_learningormemory$GO <- "4. Learning or Memory (GO:0007611)"

    GOterms <- rbind(GO_learningormemory, GO_response, GO_translation, GO_synapse)
    GOterms <- GOterms %>%
      dplyr::mutate(gene = str_to_title(MGI.Gene.Marker.ID)) %>% 
      dplyr::select(gene, GO) %>% 
      dplyr::distinct(gene, GO) %>% 
     group_by(gene) 
    GOterms

    ## # A tibble: 7,156 x 2
    ## # Groups:   gene [6,717]
    ##    gene  GO                                
    ##    <chr> <chr>                             
    ##  1 Aaas  4. Learning or Memory (GO:0007611)
    ##  2 Aal   4. Learning or Memory (GO:0007611)
    ##  3 Abca7 4. Learning or Memory (GO:0007611)
    ##  4 Abcc8 4. Learning or Memory (GO:0007611)
    ##  5 Abi2  4. Learning or Memory (GO:0007611)
    ##  6 Abl2  4. Learning or Memory (GO:0007611)
    ##  7 Adam2 4. Learning or Memory (GO:0007611)
    ##  8 Adcy1 4. Learning or Memory (GO:0007611)
    ##  9 Adcy3 4. Learning or Memory (GO:0007611)
    ## 10 Adcy8 4. Learning or Memory (GO:0007611)
    ## # … with 7,146 more rows
…
